<?xml version="1.0" encoding="UTF-8"?>
<testng-results ignored="0" total="6" passed="4" failed="2" skipped="0">
  <reporter-output>
  </reporter-output>
  <suite started-at="2022-03-22T15:01:44 CLST" name="Parametrized test Suite" finished-at="2022-03-22T15:02:06 CLST" duration-ms="21930">
    <groups>
    </groups>
    <test started-at="2022-03-22T15:01:44 CLST" name="Parametrized Test" finished-at="2022-03-22T15:01:55 CLST" duration-ms="10740">
      <class name="scripts.OpenCartTest">
        <test-method is-config="true" signature="setUp()[pri:0, instance:scripts.OpenCartTest@77e80a5e]" started-at="2022-03-22T15:01:44 CLST" name="setUp" finished-at="2022-03-22T15:01:46 CLST" duration-ms="1442" status="PASS">
          <reporter-output>
          </reporter-output>
        </test-method> <!-- setUp -->
        <test-method signature="testAddToCart(java.lang.String, java.lang.String)[pri:0, instance:scripts.OpenCartTest@77e80a5e]" started-at="2022-03-22T15:01:46 CLST" name="testAddToCart" data-provider="products" finished-at="2022-03-22T15:01:50 CLST" duration-ms="4310" status="PASS">
          <params>
            <param index="0">
              <value>
                <![CDATA[MacBook]]>
              </value>
            </param>
            <param index="1">
              <value>
                <![CDATA[$602.00]]>
              </value>
            </param>
          </params>
          <reporter-output>
          </reporter-output>
        </test-method> <!-- testAddToCart -->
        <test-method is-config="true" signature="takeScreenshot()[pri:0, instance:scripts.OpenCartTest@77e80a5e]" started-at="2022-03-22T15:01:50 CLST" name="takeScreenshot" finished-at="2022-03-22T15:01:50 CLST" duration-ms="163" status="PASS">
          <reporter-output>
          </reporter-output>
        </test-method> <!-- takeScreenshot -->
        <test-method signature="testAddToCart(java.lang.String, java.lang.String)[pri:0, instance:scripts.OpenCartTest@77e80a5e]" started-at="2022-03-22T15:01:50 CLST" name="testAddToCart" data-provider="products" finished-at="2022-03-22T15:01:52 CLST" duration-ms="1490" status="FAIL">
          <params>
            <param index="0">
              <value>
                <![CDATA[iPhone]]>
              </value>
            </param>
            <param index="1">
              <value>
                <![CDATA[$124.20]]>
              </value>
            </param>
          </params>
          <exception class="java.lang.AssertionError">
            <message>
              <![CDATA[expected [$124.20] but found [$123.20]]]>
            </message>
            <full-stacktrace>
              <![CDATA[java.lang.AssertionError: expected [$124.20] but found [$123.20]
at org.testng.Assert.fail(Assert.java:97)
at org.testng.Assert.assertEqualsImpl(Assert.java:136)
at org.testng.Assert.assertEquals(Assert.java:118)
at org.testng.Assert.assertEquals(Assert.java:575)
at org.testng.Assert.assertEquals(Assert.java:585)
at scripts.OpenCartTest.testAddToCart(OpenCartTest.java:41)
at java.base/jdk.internal.reflect.NativeMethodAccessorImpl.invoke0(Native Method)
at java.base/jdk.internal.reflect.NativeMethodAccessorImpl.invoke(NativeMethodAccessorImpl.java:77)
at java.base/jdk.internal.reflect.DelegatingMethodAccessorImpl.invoke(DelegatingMethodAccessorImpl.java:43)
at java.base/java.lang.reflect.Method.invoke(Method.java:568)
at org.testng.internal.MethodInvocationHelper.invokeMethod(MethodInvocationHelper.java:134)
at org.testng.internal.TestInvoker.invokeMethod(TestInvoker.java:597)
at org.testng.internal.TestInvoker.invokeTestMethod(TestInvoker.java:173)
at org.testng.internal.MethodRunner.runInSequence(MethodRunner.java:46)
at org.testng.internal.TestInvoker$MethodInvocationAgent.invoke(TestInvoker.java:816)
at org.testng.internal.TestInvoker.invokeTestMethods(TestInvoker.java:146)
at org.testng.internal.TestMethodWorker.invokeTestMethods(TestMethodWorker.java:146)
at org.testng.internal.TestMethodWorker.run(TestMethodWorker.java:128)
at java.base/java.util.ArrayList.forEach(ArrayList.java:1511)
at org.testng.TestRunner.privateRun(TestRunner.java:766)
at org.testng.TestRunner.run(TestRunner.java:587)
at org.testng.SuiteRunner.runTest(SuiteRunner.java:384)
at org.testng.SuiteRunner.runSequentially(SuiteRunner.java:378)
at org.testng.SuiteRunner.privateRun(SuiteRunner.java:337)
at org.testng.SuiteRunner.run(SuiteRunner.java:286)
at org.testng.SuiteRunnerWorker.runSuite(SuiteRunnerWorker.java:53)
at org.testng.SuiteRunnerWorker.run(SuiteRunnerWorker.java:96)
at org.testng.TestNG.runSuitesSequentially(TestNG.java:1187)
at org.testng.TestNG.runSuitesLocally(TestNG.java:1109)
at org.testng.TestNG.runSuites(TestNG.java:1039)
at org.testng.TestNG.run(TestNG.java:1007)
at org.apache.maven.surefire.testng.TestNGExecutor.run(TestNGExecutor.java:281)
at org.apache.maven.surefire.testng.TestNGXmlTestSuite.execute(TestNGXmlTestSuite.java:75)
at org.apache.maven.surefire.testng.TestNGProvider.invoke(TestNGProvider.java:121)
at org.apache.maven.surefire.booter.ForkedBooter.invokeProviderInSameClassLoader(ForkedBooter.java:290)
at org.apache.maven.surefire.booter.ForkedBooter.runSuitesInProcess(ForkedBooter.java:242)
at org.apache.maven.surefire.booter.ForkedBooter.main(ForkedBooter.java:121)
]]>
            </full-stacktrace>
          </exception> <!-- java.lang.AssertionError -->
          <reporter-output>
          </reporter-output>
        </test-method> <!-- testAddToCart -->
        <test-method is-config="true" signature="takeScreenshot()[pri:0, instance:scripts.OpenCartTest@77e80a5e]" started-at="2022-03-22T15:01:52 CLST" name="takeScreenshot" finished-at="2022-03-22T15:01:52 CLST" duration-ms="163" status="PASS">
          <reporter-output>
          </reporter-output>
        </test-method> <!-- takeScreenshot -->
        <test-method signature="testAddToCart(java.lang.String, java.lang.String)[pri:0, instance:scripts.OpenCartTest@77e80a5e]" started-at="2022-03-22T15:01:52 CLST" name="testAddToCart" data-provider="products" finished-at="2022-03-22T15:01:55 CLST" duration-ms="2666" status="PASS">
          <params>
            <param index="0">
              <value>
                <![CDATA[Canon EOS 5D]]>
              </value>
            </param>
            <param index="1">
              <value>
                <![CDATA[$98.00]]>
              </value>
            </param>
          </params>
          <reporter-output>
          </reporter-output>
        </test-method> <!-- testAddToCart -->
        <test-method is-config="true" signature="takeScreenshot()[pri:0, instance:scripts.OpenCartTest@77e80a5e]" started-at="2022-03-22T15:01:55 CLST" name="takeScreenshot" finished-at="2022-03-22T15:01:55 CLST" duration-ms="173" status="PASS">
          <reporter-output>
          </reporter-output>
        </test-method> <!-- takeScreenshot -->
        <test-method is-config="true" signature="tearDown()[pri:0, instance:scripts.OpenCartTest@77e80a5e]" started-at="2022-03-22T15:01:55 CLST" name="tearDown" finished-at="2022-03-22T15:01:55 CLST" duration-ms="109" status="PASS">
          <reporter-output>
          </reporter-output>
        </test-method> <!-- tearDown -->
      </class> <!-- scripts.OpenCartTest -->
    </test> <!-- Parametrized Test -->
    <test started-at="2022-03-22T15:01:55 CLST" name="Parametrized Test 2" finished-at="2022-03-22T15:02:06 CLST" duration-ms="11143">
      <class name="scripts.OpenCartTest">
        <test-method is-config="true" signature="setUp()[pri:0, instance:scripts.OpenCartTest@13e9f2e2]" started-at="2022-03-22T15:01:55 CLST" name="setUp" finished-at="2022-03-22T15:01:56 CLST" duration-ms="654" status="PASS">
          <reporter-output>
          </reporter-output>
        </test-method> <!-- setUp -->
        <test-method signature="testAddToCart(java.lang.String, java.lang.String)[pri:0, instance:scripts.OpenCartTest@13e9f2e2]" started-at="2022-03-22T15:01:56 CLST" name="testAddToCart" data-provider="products" finished-at="2022-03-22T15:02:00 CLST" duration-ms="4122" status="PASS">
          <params>
            <param index="0">
              <value>
                <![CDATA[MacBook]]>
              </value>
            </param>
            <param index="1">
              <value>
                <![CDATA[$602.00]]>
              </value>
            </param>
          </params>
          <reporter-output>
          </reporter-output>
        </test-method> <!-- testAddToCart -->
        <test-method is-config="true" signature="takeScreenshot()[pri:0, instance:scripts.OpenCartTest@13e9f2e2]" started-at="2022-03-22T15:02:00 CLST" name="takeScreenshot" finished-at="2022-03-22T15:02:00 CLST" duration-ms="158" status="PASS">
          <reporter-output>
          </reporter-output>
        </test-method> <!-- takeScreenshot -->
        <test-method signature="testAddToCart(java.lang.String, java.lang.String)[pri:0, instance:scripts.OpenCartTest@13e9f2e2]" started-at="2022-03-22T15:02:00 CLST" name="testAddToCart" data-provider="products" finished-at="2022-03-22T15:02:02 CLST" duration-ms="2116" status="FAIL">
          <params>
            <param index="0">
              <value>
                <![CDATA[iPhone]]>
              </value>
            </param>
            <param index="1">
              <value>
                <![CDATA[$124.20]]>
              </value>
            </param>
          </params>
          <exception class="java.lang.AssertionError">
            <message>
              <![CDATA[expected [$124.20] but found [$123.20]]]>
            </message>
            <full-stacktrace>
              <![CDATA[java.lang.AssertionError: expected [$124.20] but found [$123.20]
at org.testng.Assert.fail(Assert.java:97)
at org.testng.Assert.assertEqualsImpl(Assert.java:136)
at org.testng.Assert.assertEquals(Assert.java:118)
at org.testng.Assert.assertEquals(Assert.java:575)
at org.testng.Assert.assertEquals(Assert.java:585)
at scripts.OpenCartTest.testAddToCart(OpenCartTest.java:41)
at java.base/jdk.internal.reflect.NativeMethodAccessorImpl.invoke0(Native Method)
at java.base/jdk.internal.reflect.NativeMethodAccessorImpl.invoke(NativeMethodAccessorImpl.java:77)
at java.base/jdk.internal.reflect.DelegatingMethodAccessorImpl.invoke(DelegatingMethodAccessorImpl.java:43)
at java.base/java.lang.reflect.Method.invoke(Method.java:568)
at org.testng.internal.MethodInvocationHelper.invokeMethod(MethodInvocationHelper.java:134)
at org.testng.internal.TestInvoker.invokeMethod(TestInvoker.java:597)
at org.testng.internal.TestInvoker.invokeTestMethod(TestInvoker.java:173)
at org.testng.internal.MethodRunner.runInSequence(MethodRunner.java:46)
at org.testng.internal.TestInvoker$MethodInvocationAgent.invoke(TestInvoker.java:816)
at org.testng.internal.TestInvoker.invokeTestMethods(TestInvoker.java:146)
at org.testng.internal.TestMethodWorker.invokeTestMethods(TestMethodWorker.java:146)
at org.testng.internal.TestMethodWorker.run(TestMethodWorker.java:128)
at java.base/java.util.ArrayList.forEach(ArrayList.java:1511)
at org.testng.TestRunner.privateRun(TestRunner.java:766)
at org.testng.TestRunner.run(TestRunner.java:587)
at org.testng.SuiteRunner.runTest(SuiteRunner.java:384)
at org.testng.SuiteRunner.runSequentially(SuiteRunner.java:378)
at org.testng.SuiteRunner.privateRun(SuiteRunner.java:337)
at org.testng.SuiteRunner.run(SuiteRunner.java:286)
at org.testng.SuiteRunnerWorker.runSuite(SuiteRunnerWorker.java:53)
at org.testng.SuiteRunnerWorker.run(SuiteRunnerWorker.java:96)
at org.testng.TestNG.runSuitesSequentially(TestNG.java:1187)
at org.testng.TestNG.runSuitesLocally(TestNG.java:1109)
at org.testng.TestNG.runSuites(TestNG.java:1039)
at org.testng.TestNG.run(TestNG.java:1007)
at org.apache.maven.surefire.testng.TestNGExecutor.run(TestNGExecutor.java:281)
at org.apache.maven.surefire.testng.TestNGXmlTestSuite.execute(TestNGXmlTestSuite.java:75)
at org.apache.maven.surefire.testng.TestNGProvider.invoke(TestNGProvider.java:121)
at org.apache.maven.surefire.booter.ForkedBooter.invokeProviderInSameClassLoader(ForkedBooter.java:290)
at org.apache.maven.surefire.booter.ForkedBooter.runSuitesInProcess(ForkedBooter.java:242)
at org.apache.maven.surefire.booter.ForkedBooter.main(ForkedBooter.java:121)
]]>
            </full-stacktrace>
          </exception> <!-- java.lang.AssertionError -->
          <reporter-output>
          </reporter-output>
        </test-method> <!-- testAddToCart -->
        <test-method is-config="true" signature="takeScreenshot()[pri:0, instance:scripts.OpenCartTest@13e9f2e2]" started-at="2022-03-22T15:02:02 CLST" name="takeScreenshot" finished-at="2022-03-22T15:02:02 CLST" duration-ms="158" status="PASS">
          <reporter-output>
          </reporter-output>
        </test-method> <!-- takeScreenshot -->
        <test-method signature="testAddToCart(java.lang.String, java.lang.String)[pri:0, instance:scripts.OpenCartTest@13e9f2e2]" started-at="2022-03-22T15:02:02 CLST" name="testAddToCart" data-provider="products" finished-at="2022-03-22T15:02:06 CLST" duration-ms="3661" status="PASS">
          <params>
            <param index="0">
              <value>
                <![CDATA[Canon EOS 5D]]>
              </value>
            </param>
            <param index="1">
              <value>
                <![CDATA[$98.00]]>
              </value>
            </param>
          </params>
          <reporter-output>
          </reporter-output>
        </test-method> <!-- testAddToCart -->
        <test-method is-config="true" signature="takeScreenshot()[pri:0, instance:scripts.OpenCartTest@13e9f2e2]" started-at="2022-03-22T15:02:06 CLST" name="takeScreenshot" finished-at="2022-03-22T15:02:06 CLST" duration-ms="163" status="PASS">
          <reporter-output>
          </reporter-output>
        </test-method> <!-- takeScreenshot -->
        <test-method is-config="true" signature="tearDown()[pri:0, instance:scripts.OpenCartTest@13e9f2e2]" started-at="2022-03-22T15:02:06 CLST" name="tearDown" finished-at="2022-03-22T15:02:06 CLST" duration-ms="98" status="PASS">
          <reporter-output>
          </reporter-output>
        </test-method> <!-- tearDown -->
      </class> <!-- scripts.OpenCartTest -->
    </test> <!-- Parametrized Test 2 -->
  </suite> <!-- Parametrized test Suite -->
</testng-results>
